…
  could not find function "sumgroup_by"
> sum_capital_gain_bachelors <-group_by(data,capital-gain)
Error in `group_by()`:
! Problem adding computed columns.
Caused by error in `mutate()`:
! Problem while computing `..1 = capital - gain`.
Caused by error:
! object 'capital' not found
Run `rlang::last_error()` to see where the error occurred.
> sum_capital_gain_bachelors <-group_by(data,capital.gain)
> print(sum_gain_bachelors)
Error in print(sum_gain_bachelors) : 
  object 'sum_gain_bachelors' not found
> print(sum_capital_gain_bachelors)
# A tibble: 30,162 × 16
# Groups:   capital.gain [118]
   Date         Age WorkClass           fnlwgt education    education.num marital.status           occupation           relationship     race    gender capital.gain capital.loss hours.per.week native.country class
   <chr>      <int> <chr>                <int> <chr>                <int> <chr>                    <chr>                <chr>            <chr>   <chr>         <int>        <int>          <int> <chr>          <chr>
 1 3/20/1994     39 " State-gov"         77516 " Bachelors"            13 " Never-married"         " Adm-clerical"      " Not-in-family" " Whit… " Mal…         2174            0             40 " United-Stat… " <=…
 2 1/14/1994     50 " Self-emp-not-inc"  83311 " Bachelors"            13 " Married-civ-spouse"    " Exec-managerial"   " Husband"       " Whit… " Mal…            0            0             13 " United-Stat… " <=…
 3 8/14/1994     38 " Private"          215646 " HS-grad"               9 " Divorced"              " Handlers-cleaners" " Not-in-family" " Whit… " Mal…            0            0             40 " United-Stat… " <=…
 4 3/17/1994     53 " Private"          234721 " 11th"                  7 " Married-civ-spouse"    " Handlers-cleaners" " Husband"       " Blac… " Mal…            0            0             40 " United-Stat… " <=…
 5 9/20/1994     28 " Private"          338409 " Bachelors"            13 " Married-civ-spouse"    " Prof-specialty"    " Wife"          " Blac… " Fem…            0            0             40 " Cuba"        " <=…
 6 11/28/1994    37 " Private"          284582 " Masters"              14 " Married-civ-spouse"    " Exec-managerial"   " Wife"          " Whit… " Fem…            0            0             40 " United-Stat… " <=…
 7 3/2/1994      49 " Private"          160187 " 9th"                   5 " Married-spouse-absent" " Other-service"     " Not-in-family" " Blac… " Fem…            0            0             16 " Jamaica"     " <=…
 8 11/27/1994    52 " Self-emp-not-inc" 209642 " HS-grad"               9 " Married-civ-spouse"    " Exec-managerial"   " Husband"       " Whit… " Mal…            0            0             45 " United-Stat… " >5…
 9 12/25/1994    31 " Private"           45781 " Masters"              14 " Never-married"         " Prof-specialty"    " Not-in-family" " Whit… " Fem…        14084            0             50 " United-Stat… " >5…
10 10/10/1994    42 " Private"          159449 " Bachelors"            13 " Married-civ-spouse"    " Exec-managerial"   " Husband"       " Whit… " Mal…         5178            0             40 " United-Stat… " >5…
# … with 30,152 more rows
> sum_capital_gain_bachelors <-group_by(data,education == Bachelors)
Error in `group_by()`:
! Problem adding computed columns.
Caused by error in `mutate()`:
! Problem while computing `..1 = education == Bachelors`.
Caused by error:
! object 'Bachelors' not found
Run `rlang::last_error()` to see where the error occurred.
> sum_capital_gain_bachelors <-group_by(data,education == "Bachelors")
> print(sum_capital_gain_bachelors)
# A tibble: 30,162 × 17
# Groups:   education == "Bachelors" [1]
   Date         Age WorkClass           fnlwgt education    education.num marital.status          occupation relationship race  gender capital.gain capital.loss hours.per.week native.country class `education == …`
   <chr>      <int> <chr>                <int> <chr>                <int> <chr>                   <chr>      <chr>        <chr> <chr>         <int>        <int>          <int> <chr>          <chr> <lgl>           
 1 3/20/1994     39 " State-gov"         77516 " Bachelors"            13 " Never-married"        " Adm-cle… " Not-in-fa… " Wh… " Mal…         2174            0             40 " United-Stat… " <=… FALSE           
 2 1/14/1994     50 " Self-emp-not-inc"  83311 " Bachelors"            13 " Married-civ-spouse"   " Exec-ma… " Husband"   " Wh… " Mal…            0            0             13 " United-Stat… " <=… FALSE           
 3 8/14/1994     38 " Private"          215646 " HS-grad"               9 " Divorced"             " Handler… " Not-in-fa… " Wh… " Mal…            0            0             40 " United-Stat… " <=… FALSE           
 4 3/17/1994     53 " Private"          234721 " 11th"                  7 " Married-civ-spouse"   " Handler… " Husband"   " Bl… " Mal…            0            0             40 " United-Stat… " <=… FALSE           
 5 9/20/1994     28 " Private"          338409 " Bachelors"            13 " Married-civ-spouse"   " Prof-sp… " Wife"      " Bl… " Fem…            0            0             40 " Cuba"        " <=… FALSE           
 6 11/28/1994    37 " Private"          284582 " Masters"              14 " Married-civ-spouse"   " Exec-ma… " Wife"      " Wh… " Fem…            0            0             40 " United-Stat… " <=… FALSE           
 7 3/2/1994      49 " Private"          160187 " 9th"                   5 " Married-spouse-absen… " Other-s… " Not-in-fa… " Bl… " Fem…            0            0             16 " Jamaica"     " <=… FALSE           
 8 11/27/1994    52 " Self-emp-not-inc" 209642 " HS-grad"               9 " Married-civ-spouse"   " Exec-ma… " Husband"   " Wh… " Mal…            0            0             45 " United-Stat… " >5… FALSE           
 9 12/25/1994    31 " Private"           45781 " Masters"              14 " Never-married"        " Prof-sp… " Not-in-fa… " Wh… " Fem…        14084            0             50 " United-Stat… " >5… FALSE           
10 10/10/1994    42 " Private"          159449 " Bachelors"            13 " Married-civ-spouse"   " Exec-ma… " Husband"   " Wh… " Mal…         5178            0             40 " United-Stat… " >5… FALSE           
# … with 30,152 more rows
> sum_capital_gain_bachelors <-group_by(data,education == "Bachelors", capital.gain)
> print(sum_capital_gain_bachelors)
# A tibble: 30,162 × 17
# Groups:   education == "Bachelors", capital.gain [118]
   Date         Age WorkClass           fnlwgt education    education.num marital.status          occupation relationship race  gender capital.gain capital.loss hours.per.week native.country class `education == …`
   <chr>      <int> <chr>                <int> <chr>                <int> <chr>                   <chr>      <chr>        <chr> <chr>         <int>        <int>          <int> <chr>          <chr> <lgl>           
 1 3/20/1994     39 " State-gov"         77516 " Bachelors"            13 " Never-married"        " Adm-cle… " Not-in-fa… " Wh… " Mal…         2174            0             40 " United-Stat… " <=… FALSE           
 2 1/14/1994     50 " Self-emp-not-inc"  83311 " Bachelors"            13 " Married-civ-spouse"   " Exec-ma… " Husband"   " Wh… " Mal…            0            0             13 " United-Stat… " <=… FALSE           
 3 8/14/1994     38 " Private"          215646 " HS-grad"               9 " Divorced"             " Handler… " Not-in-fa… " Wh… " Mal…            0            0             40 " United-Stat… " <=… FALSE           
 4 3/17/1994     53 " Private"          234721 " 11th"                  7 " Married-civ-spouse"   " Handler… " Husband"   " Bl… " Mal…            0            0             40 " United-Stat… " <=… FALSE           
 5 9/20/1994     28 " Private"          338409 " Bachelors"            13 " Married-civ-spouse"   " Prof-sp… " Wife"      " Bl… " Fem…            0            0             40 " Cuba"        " <=… FALSE           
 6 11/28/1994    37 " Private"          284582 " Masters"              14 " Married-civ-spouse"   " Exec-ma… " Wife"      " Wh… " Fem…            0            0             40 " United-Stat… " <=… FALSE           
 7 3/2/1994      49 " Private"          160187 " 9th"                   5 " Married-spouse-absen… " Other-s… " Not-in-fa… " Bl… " Fem…            0            0             16 " Jamaica"     " <=… FALSE           
 8 11/27/1994    52 " Self-emp-not-inc" 209642 " HS-grad"               9 " Married-civ-spouse"   " Exec-ma… " Husband"   " Wh… " Mal…            0            0             45 " United-Stat… " >5… FALSE           
 9 12/25/1994    31 " Private"           45781 " Masters"              14 " Never-married"        " Prof-sp… " Not-in-fa… " Wh… " Fem…        14084            0             50 " United-Stat… " >5… FALSE           
10 10/10/1994    42 " Private"          159449 " Bachelors"            13 " Married-civ-spouse"   " Exec-ma… " Husband"   " Wh… " Mal…         5178            0             40 " United-Stat… " >5… FALSE           
# … with 30,152 more rows
> sum_capital_gain_bachelors <-group_by(data,education, capital.gain)
> print(sum_capital_gain_bachelors)
# A tibble: 30,162 × 16
# Groups:   education, capital.gain [548]
   Date         Age WorkClass           fnlwgt education    education.num marital.status           occupation           relationship     race    gender capital.gain capital.loss hours.per.week native.country class
   <chr>      <int> <chr>                <int> <chr>                <int> <chr>                    <chr>                <chr>            <chr>   <chr>         <int>        <int>          <int> <chr>          <chr>
 1 3/20/1994     39 " State-gov"         77516 " Bachelors"            13 " Never-married"         " Adm-clerical"      " Not-in-family" " Whit… " Mal…         2174            0             40 " United-Stat… " <=…
 2 1/14/1994     50 " Self-emp-not-inc"  83311 " Bachelors"            13 " Married-civ-spouse"    " Exec-managerial"   " Husband"       " Whit… " Mal…            0            0             13 " United-Stat… " <=…
 3 8/14/1994     38 " Private"          215646 " HS-grad"               9 " Divorced"              " Handlers-cleaners" " Not-in-family" " Whit… " Mal…            0            0             40 " United-Stat… " <=…
 4 3/17/1994     53 " Private"          234721 " 11th"                  7 " Married-civ-spouse"    " Handlers-cleaners" " Husband"       " Blac… " Mal…            0            0             40 " United-Stat… " <=…
 5 9/20/1994     28 " Private"          338409 " Bachelors"            13 " Married-civ-spouse"    " Prof-specialty"    " Wife"          " Blac… " Fem…            0            0             40 " Cuba"        " <=…
 6 11/28/1994    37 " Private"          284582 " Masters"              14 " Married-civ-spouse"    " Exec-managerial"   " Wife"          " Whit… " Fem…            0            0             40 " United-Stat… " <=…
 7 3/2/1994      49 " Private"          160187 " 9th"                   5 " Married-spouse-absent" " Other-service"     " Not-in-family" " Blac… " Fem…            0            0             16 " Jamaica"     " <=…
 8 11/27/1994    52 " Self-emp-not-inc" 209642 " HS-grad"               9 " Married-civ-spouse"    " Exec-managerial"   " Husband"       " Whit… " Mal…            0            0             45 " United-Stat… " >5…
 9 12/25/1994    31 " Private"           45781 " Masters"              14 " Never-married"         " Prof-specialty"    " Not-in-family" " Whit… " Fem…        14084            0             50 " United-Stat… " >5…
10 10/10/1994    42 " Private"          159449 " Bachelors"            13 " Married-civ-spouse"    " Exec-managerial"   " Husband"       " Whit… " Mal…         5178            0             40 " United-Stat… " >5…
# … with 30,152 more rows
…
> nrow(data)
NULL
> data <- data(data, .(education),sum(capital.gain))
Warning messages:
1: In data(data, .(education), sum(capital.gain)) :
  data set ‘data’ not found
2: In data(data, .(education), sum(capital.gain)) :
  data set ‘.(education)’ not found
3: In data(data, .(education), sum(capital.gain)) :
  data set ‘sum(capital.gain)’ not found
> data
[1] "data"              ".(education)"      "sum(capital.gain)"
> data <- sum_capital_gain_bachelors
> data
# A tibble: 30,162 × 16
# Groups:   education, capital.gain [548]
   Date         Age WorkClass           fnlwgt education    education.num marital.status           occupation           relationship     race    gender capital.gain capital.loss hours.per.week native.country class
   <chr>      <int> <chr>                <int> <chr>                <int> <chr>                    <chr>                <chr>            <chr>   <chr>         <int>        <int>          <int> <chr>          <chr>
 1 3/20/1994     39 " State-gov"         77516 " Bachelors"            13 " Never-married"         " Adm-clerical"      " Not-in-family" " Whit… " Mal…         2174            0             40 " United-Stat… " <=…
 2 1/14/1994     50 " Self-emp-not-inc"  83311 " Bachelors"            13 " Married-civ-spouse"    " Exec-managerial"   " Husband"       " Whit… " Mal…            0            0             13 " United-Stat… " <=…
 3 8/14/1994     38 " Private"          215646 " HS-grad"               9 " Divorced"              " Handlers-cleaners" " Not-in-family" " Whit… " Mal…            0            0             40 " United-Stat… " <=…
 4 3/17/1994     53 " Private"          234721 " 11th"                  7 " Married-civ-spouse"    " Handlers-cleaners" " Husband"       " Blac… " Mal…            0            0             40 " United-Stat… " <=…
 5 9/20/1994     28 " Private"          338409 " Bachelors"            13 " Married-civ-spouse"    " Prof-specialty"    " Wife"          " Blac… " Fem…            0            0             40 " Cuba"        " <=…
 6 11/28/1994    37 " Private"          284582 " Masters"              14 " Married-civ-spouse"    " Exec-managerial"   " Wife"          " Whit… " Fem…            0            0             40 " United-Stat… " <=…
 7 3/2/1994      49 " Private"          160187 " 9th"                   5 " Married-spouse-absent" " Other-service"     " Not-in-family" " Blac… " Fem…            0            0             16 " Jamaica"     " <=…
 8 11/27/1994    52 " Self-emp-not-inc" 209642 " HS-grad"               9 " Married-civ-spouse"    " Exec-managerial"   " Husband"       " Whit… " Mal…            0            0             45 " United-Stat… " >5…
 9 12/25/1994    31 " Private"           45781 " Masters"              14 " Never-married"         " Prof-specialty"    " Not-in-family" " Whit… " Fem…        14084            0             50 " United-Stat… " >5…
10 10/10/1994    42 " Private"          159449 " Bachelors"            13 " Married-civ-spouse"    " Exec-managerial"   " Husband"       " Whit… " Mal…         5178            0             40 " United-Stat… " >5…
# … with 30,152 more rows
…
